EESchema Schematic File Version 4
EELAYER 30 0
EELAYER END
$Descr A3 16535 11693
encoding utf-8
Sheet 1 1
Title ""
Date ""
Rev ""
Comp ""
Comment1 ""
Comment2 ""
Comment3 ""
Comment4 ""
$EndDescr
$Comp
L Texas~Instruments:TPS63802 U2
U 1 1 61BC2124
P 9850 1950
F 0 "U2" H 9850 2615 50  0000 C CNN
F 1 "TPS63802" H 9850 2524 50  0000 C CNN
F 2 "" H 9850 1950 50  0001 C CNN
F 3 "" H 9850 1950 50  0001 C CNN
	1    9850 1950
	1    0    0    -1  
$EndComp
$Comp
L Macronix:MX25U1633F U1
U 1 1 61BC31BA
P 13950 9150
F 0 "U1" H 13950 9617 50  0000 C CNN
F 1 "MX25U1633F" H 13950 9526 50  0000 C CNN
F 2 "" H 13950 9150 50  0001 C CNN
F 3 "" H 13950 9150 50  0001 C CNN
	1    13950 9150
	1    0    0    -1  
$EndComp
$Comp
L Microchip-Technology:ATSAMD51J19A-A U4
U 1 1 61BDFAB1
P 3050 4600
F 0 "U4" H 3050 5667 50  0000 C CNN
F 1 "ATSAMD51J19A-A" H 3050 5576 50  0000 C CNN
F 2 "" H 3050 4600 50  0001 C CNN
F 3 "" H 3050 4600 50  0001 C CNN
	1    3050 4600
	1    0    0    -1  
$EndComp
$Comp
L Microchip-Technology:ATSAMD51J19A-A U4
U 2 1 61BE20F8
P 6000 4500
F 0 "U4" H 6000 5467 50  0000 C CNN
F 1 "ATSAMD51J19A-A" H 6000 5376 50  0000 C CNN
F 2 "" H 6000 4500 50  0001 C CNN
F 3 "" H 6000 4500 50  0001 C CNN
	2    6000 4500
	1    0    0    -1  
$EndComp
$Comp
L Microchip-Technology:ATSAMD51J19A-A U4
U 3 1 61BE2D97
P 8300 4600
F 0 "U4" H 8300 5317 50  0000 C CNN
F 1 "ATSAMD51J19A-A" H 8300 5226 50  0000 C CNN
F 2 "" H 8300 4600 50  0001 C CNN
F 3 "" H 8300 4600 50  0001 C CNN
	3    8300 4600
	1    0    0    -1  
$EndComp
$Comp
L Connector:USB_B_Micro J2
U 1 1 61BE9997
P 1050 1300
F 0 "J2" H 1107 1767 50  0000 C CNN
F 1 "USB_B_Micro" H 1107 1676 50  0000 C CNN
F 2 "" H 1200 1250 50  0001 C CNN
F 3 "~" H 1200 1250 50  0001 C CNN
	1    1050 1300
	1    0    0    -1  
$EndComp
$Comp
L Connector_Generic:Conn_01x02 J1
U 1 1 61BEB9B2
P 8500 1800
F 0 "J1" H 8580 1792 50  0000 L CNN
F 1 "Conn_01x02" H 8580 1701 50  0000 L CNN
F 2 "" H 8500 1800 50  0001 C CNN
F 3 "~" H 8500 1800 50  0001 C CNN
	1    8500 1800
	1    0    0    -1  
$EndComp
$Comp
L Connector_Generic:Conn_01x12 J3
U 1 1 61BED70E
P 13850 4350
F 0 "J3" H 13930 4342 50  0000 L CNN
F 1 "Conn_01x12" H 13930 4251 50  0000 L CNN
F 2 "" H 13850 4350 50  0001 C CNN
F 3 "~" H 13850 4350 50  0001 C CNN
	1    13850 4350
	1    0    0    -1  
$EndComp
$Comp
L Connector_Generic:Conn_01x14 J4
U 1 1 61BEEC9F
P 13350 4450
F 0 "J4" H 13430 4442 50  0000 L CNN
F 1 "Conn_01x14" H 13430 4351 50  0000 L CNN
F 2 "" H 13350 4450 50  0001 C CNN
F 3 "~" H 13350 4450 50  0001 C CNN
	1    13350 4450
	1    0    0    -1  
$EndComp
$Comp
L power:+3V3 #PWR04
U 1 1 61BF03B9
P 14650 8750
F 0 "#PWR04" H 14650 8600 50  0001 C CNN
F 1 "+3V3" H 14665 8923 50  0000 C CNN
F 2 "" H 14650 8750 50  0001 C CNN
F 3 "" H 14650 8750 50  0001 C CNN
	1    14650 8750
	1    0    0    -1  
$EndComp
$Comp
L power:GND #PWR05
U 1 1 61BF0817
P 14650 9550
F 0 "#PWR05" H 14650 9300 50  0001 C CNN
F 1 "GND" H 14655 9377 50  0000 C CNN
F 2 "" H 14650 9550 50  0001 C CNN
F 3 "" H 14650 9550 50  0001 C CNN
	1    14650 9550
	1    0    0    -1  
$EndComp
$Comp
L Device:R R5
U 1 1 61BF1074
P 13250 8600
F 0 "R5" H 13320 8646 50  0000 L CNN
F 1 "10K" H 13320 8555 50  0000 L CNN
F 2 "" V 13180 8600 50  0001 C CNN
F 3 "~" H 13250 8600 50  0001 C CNN
	1    13250 8600
	1    0    0    -1  
$EndComp
Wire Wire Line
	14450 8950 14650 8950
Wire Wire Line
	14650 8950 14650 8750
Wire Wire Line
	14450 9350 14650 9350
Wire Wire Line
	14650 9350 14650 9550
Text Label 14750 9150 0    50   ~ 0
QSPI_DATA[1]
Wire Wire Line
	14450 9150 15350 9150
$Comp
L power:+3V3 #PWR03
U 1 1 61BF391B
P 13250 8250
F 0 "#PWR03" H 13250 8100 50  0001 C CNN
F 1 "+3V3" H 13265 8423 50  0000 C CNN
F 2 "" H 13250 8250 50  0001 C CNN
F 3 "" H 13250 8250 50  0001 C CNN
	1    13250 8250
	1    0    0    -1  
$EndComp
Wire Wire Line
	13250 8450 13250 8250
Wire Wire Line
	13250 8750 13250 8950
Wire Wire Line
	13250 8950 13450 8950
Text Label 13150 8950 2    50   ~ 0
QSPI_CS
Text Label 13150 9050 2    50   ~ 0
QSPI_SCK
Text Label 13150 9150 2    50   ~ 0
QSPI_DATA[0]
Text Label 13150 9250 2    50   ~ 0
QSPI_DATA[2]
Text Label 13150 9350 2    50   ~ 0
QSPI_DATA[3]
Wire Wire Line
	13450 9350 12550 9350
Wire Wire Line
	13450 9250 12550 9250
Wire Wire Line
	13450 9150 12550 9150
Wire Wire Line
	13450 9050 12550 9050
Wire Wire Line
	13250 8950 12550 8950
Connection ~ 13250 8950
$Comp
L power:GND #PWR02
U 1 1 61BFB75D
P 8100 3300
F 0 "#PWR02" H 8100 3050 50  0001 C CNN
F 1 "GND" H 8105 3127 50  0000 C CNN
F 2 "" H 8100 3300 50  0001 C CNN
F 3 "" H 8100 3300 50  0001 C CNN
	1    8100 3300
	1    0    0    -1  
$EndComp
$Comp
L power:GND #PWR09
U 1 1 61C00254
P 1050 2000
F 0 "#PWR09" H 1050 1750 50  0001 C CNN
F 1 "GND" H 1055 1827 50  0000 C CNN
F 2 "" H 1050 2000 50  0001 C CNN
F 3 "" H 1050 2000 50  0001 C CNN
	1    1050 2000
	1    0    0    -1  
$EndComp
Wire Wire Line
	950  1700 950  1900
Wire Wire Line
	950  1900 1050 1900
Wire Wire Line
	1050 1900 1050 2000
Wire Wire Line
	1050 1700 1050 1900
Connection ~ 1050 1900
Wire Wire Line
	1350 1100 1550 1100
Wire Wire Line
	1550 1100 1550 900 
$Comp
L Connector:TestPoint_Alt TP1
U 1 1 61C0693C
P 1850 850
F 0 "TP1" H 1908 968 50  0000 L CNN
F 1 "D+" H 1908 877 50  0000 L CNN
F 2 "" H 2050 850 50  0001 C CNN
F 3 "~" H 2050 850 50  0001 C CNN
	1    1850 850 
	1    0    0    -1  
$EndComp
$Comp
L Connector:TestPoint_Alt TP2
U 1 1 61C07A2E
P 2150 850
F 0 "TP2" H 2208 968 50  0000 L CNN
F 1 "D-" H 2208 877 50  0000 L CNN
F 2 "" H 2350 850 50  0001 C CNN
F 3 "~" H 2350 850 50  0001 C CNN
	1    2150 850 
	1    0    0    -1  
$EndComp
Wire Wire Line
	1850 850  1850 1300
Wire Wire Line
	2150 850  2150 1400
$Comp
L power:+VSW #PWR07
U 1 1 61C0ABF6
P 7500 900
F 0 "#PWR07" H 7500 750 50  0001 C CNN
F 1 "+VSW" H 7515 1073 50  0000 C CNN
F 2 "" H 7500 900 50  0001 C CNN
F 3 "" H 7500 900 50  0001 C CNN
	1    7500 900 
	1    0    0    -1  
$EndComp
$Comp
L power:+5V #PWR06
U 1 1 61C0B831
P 6200 900
F 0 "#PWR06" H 6200 750 50  0001 C CNN
F 1 "+5V" H 6215 1073 50  0000 C CNN
F 2 "" H 6200 900 50  0001 C CNN
F 3 "" H 6200 900 50  0001 C CNN
	1    6200 900 
	1    0    0    -1  
$EndComp
$Comp
L power:VBUS #PWR01
U 1 1 61C0C1E3
P 1550 900
F 0 "#PWR01" H 1550 750 50  0001 C CNN
F 1 "VBUS" H 1565 1073 50  0000 C CNN
F 2 "" H 1550 900 50  0001 C CNN
F 3 "" H 1550 900 50  0001 C CNN
	1    1550 900 
	1    0    0    -1  
$EndComp
$Comp
L Device:C_Small C?
U 1 1 61C0FD16
P 6500 1300
F 0 "C?" V 6271 1300 50  0000 C CNN
F 1 "C_Small" V 6362 1300 50  0000 C CNN
F 2 "" H 6500 1300 50  0001 C CNN
F 3 "~" H 6500 1300 50  0001 C CNN
	1    6500 1300
	0    1    1    0   
$EndComp
$Comp
L Device:L L?
U 1 1 61C12E12
P 7150 1500
F 0 "L?" V 7340 1500 50  0000 C CNN
F 1 "L" V 7249 1500 50  0000 C CNN
F 2 "" H 7150 1500 50  0001 C CNN
F 3 "~" H 7150 1500 50  0001 C CNN
	1    7150 1500
	0    -1   -1   0   
$EndComp
$Comp
L Texas~Instruments:BQ25895RTW U3
U 1 1 61C2EA60
P 5600 1800
F 0 "U3" H 5600 2767 50  0000 C CNN
F 1 "BQ25895RTW" H 5600 2676 50  0000 C CNN
F 2 "Package_DFN_QFN:Texas_S-PWQFN-N24_EP2.7x2.7mm_ThermalVias" H 5500 2800 50  0001 C CNN
F 3 "http://www.ti.com/lit/ds/symlink/bq25895.pdf" H 5400 2600 50  0001 C CNN
	1    5600 1800
	1    0    0    -1  
$EndComp
Wire Wire Line
	6000 1100 6200 1100
Wire Wire Line
	6200 1100 6200 900 
Wire Wire Line
	6200 1100 6200 2700
Connection ~ 6200 1100
Wire Wire Line
	6000 1500 6800 1500
Wire Wire Line
	6800 1500 6800 1300
Wire Wire Line
	6800 1300 6600 1300
Wire Wire Line
	6400 1300 6000 1300
Wire Wire Line
	7000 1500 6800 1500
Connection ~ 6800 1500
Wire Wire Line
	7300 1500 7500 1500
Wire Wire Line
	7500 1500 7500 900 
Wire Wire Line
	7500 1500 7500 1700
Connection ~ 7500 1500
Wire Wire Line
	6000 1700 7500 1700
Connection ~ 7500 1700
$Comp
L Device:C C?
U 1 1 61C3B48D
P 6200 2850
F 0 "C?" H 6315 2896 50  0000 L CNN
F 1 "C" H 6315 2805 50  0000 L CNN
F 2 "" H 6238 2700 50  0001 C CNN
F 3 "~" H 6200 2850 50  0001 C CNN
	1    6200 2850
	1    0    0    -1  
$EndComp
Wire Wire Line
	6800 2500 6800 2700
Wire Wire Line
	7000 2000 7200 2000
$Comp
L Device:C C?
U 1 1 61C4254E
P 6500 2850
F 0 "C?" H 6615 2896 50  0000 L CNN
F 1 "C" H 6615 2805 50  0000 L CNN
F 2 "" H 6538 2700 50  0001 C CNN
F 3 "~" H 6500 2850 50  0001 C CNN
	1    6500 2850
	1    0    0    -1  
$EndComp
Wire Wire Line
	6500 2000 6500 2700
Wire Wire Line
	6000 2000 6500 2000
Wire Wire Line
	7200 2000 7200 2300
Wire Wire Line
	6000 2500 6800 2500
Wire Wire Line
	6000 2300 7200 2300
Connection ~ 7200 2300
Wire Wire Line
	7200 2300 7200 2700
Wire Wire Line
	6700 2000 6500 2000
Connection ~ 6500 2000
$Comp
L Device:C C?
U 1 1 61C4EBCD
P 7500 2850
F 0 "C?" H 7615 2896 50  0000 L CNN
F 1 "C" H 7615 2805 50  0000 L CNN
F 2 "" H 7538 2700 50  0001 C CNN
F 3 "~" H 7500 2850 50  0001 C CNN
	1    7500 2850
	1    0    0    -1  
$EndComp
$Comp
L Connector_Generic:Conn_01x01 J5A
U 1 1 61C4F7F1
P 8500 2300
F 0 "J5A" H 8580 2342 50  0000 L CNN
F 1 "Conn_01x01" H 8580 2251 50  0000 L CNN
F 2 "" H 8500 2300 50  0001 C CNN
F 3 "~" H 8500 2300 50  0001 C CNN
	1    8500 2300
	1    0    0    -1  
$EndComp
$Comp
L Connector_Generic:Conn_01x01 J5B
U 1 1 61C511DF
P 8500 2500
F 0 "J5B" H 8580 2542 50  0000 L CNN
F 1 "Conn_01x01" H 8580 2451 50  0000 L CNN
F 2 "" H 8500 2500 50  0001 C CNN
F 3 "~" H 8500 2500 50  0001 C CNN
	1    8500 2500
	1    0    0    -1  
$EndComp
Wire Wire Line
	5600 2700 5600 3200
Wire Wire Line
	5600 3200 6200 3200
Wire Wire Line
	6200 3200 6200 3000
Wire Wire Line
	6500 3000 6500 3200
Wire Wire Line
	6500 3200 6200 3200
Connection ~ 6200 3200
Wire Wire Line
	6800 3000 6800 3200
Wire Wire Line
	6800 3200 6500 3200
Connection ~ 6500 3200
Wire Wire Line
	7200 3000 7200 3200
Wire Wire Line
	7200 3200 6800 3200
Connection ~ 6800 3200
Wire Wire Line
	7500 3000 7500 3200
Wire Wire Line
	7500 3200 7200 3200
Connection ~ 7200 3200
Wire Wire Line
	8100 1900 8300 1900
Wire Wire Line
	8100 2500 8300 2500
Wire Wire Line
	6000 1800 7800 1800
Wire Wire Line
	7800 1800 7800 900 
$Comp
L power:+BATT #PWR08
U 1 1 61C64FFE
P 7800 900
F 0 "#PWR08" H 7800 750 50  0001 C CNN
F 1 "+BATT" H 7815 1073 50  0000 C CNN
F 2 "" H 7800 900 50  0001 C CNN
F 3 "" H 7800 900 50  0001 C CNN
	1    7800 900 
	1    0    0    -1  
$EndComp
Wire Wire Line
	7500 1700 7500 2700
$Comp
L Device:C C?
U 1 1 61C681B2
P 7800 2850
F 0 "C?" H 7915 2896 50  0000 L CNN
F 1 "C" H 7915 2805 50  0000 L CNN
F 2 "" H 7838 2700 50  0001 C CNN
F 3 "~" H 7800 2850 50  0001 C CNN
	1    7800 2850
	1    0    0    -1  
$EndComp
Wire Wire Line
	8100 3300 8100 3200
Wire Wire Line
	8100 3200 7800 3200
Connection ~ 7500 3200
Wire Wire Line
	7800 3000 7800 3200
Connection ~ 7800 3200
Wire Wire Line
	7800 3200 7500 3200
Wire Wire Line
	8100 3200 8100 2500
Connection ~ 8100 3200
Wire Wire Line
	8100 2500 8100 1900
Connection ~ 8100 2500
Wire Wire Line
	8300 2300 7200 2300
$Comp
L Device:R R?
U 1 1 61C3E414
P 7200 2850
F 0 "R?" H 7130 2804 50  0000 R CNN
F 1 "10K" H 7130 2895 50  0000 R CNN
F 2 "" V 7130 2850 50  0001 C CNN
F 3 "~" H 7200 2850 50  0001 C CNN
	1    7200 2850
	-1   0    0    1   
$EndComp
$Comp
L Device:R R?
U 1 1 61C24FDF
P 6800 2850
F 0 "R?" H 6730 2804 50  0000 R CNN
F 1 "10K" H 6730 2895 50  0000 R CNN
F 2 "" V 6730 2850 50  0001 C CNN
F 3 "~" H 6800 2850 50  0001 C CNN
	1    6800 2850
	-1   0    0    1   
$EndComp
$Comp
L Device:R R?
U 1 1 61C3F04E
P 6850 2000
F 0 "R?" V 6950 2000 50  0000 C CNN
F 1 "10K" V 6750 2000 50  0000 C CNN
F 2 "" V 6780 2000 50  0001 C CNN
F 3 "~" H 6850 2000 50  0001 C CNN
	1    6850 2000
	0    -1   -1   0   
$EndComp
Wire Wire Line
	7800 2700 7800 1800
Connection ~ 7800 1800
Wire Wire Line
	7800 1800 8300 1800
Text Label 1700 1300 0    50   ~ 0
D+
Text Label 1700 1400 0    50   ~ 0
D-
$Comp
L power:VBUS #PWR?
U 1 1 61C778A6
P 5000 900
F 0 "#PWR?" H 5000 750 50  0001 C CNN
F 1 "VBUS" H 5015 1073 50  0000 C CNN
F 2 "" H 5000 900 50  0001 C CNN
F 3 "" H 5000 900 50  0001 C CNN
	1    5000 900 
	1    0    0    -1  
$EndComp
Wire Wire Line
	5200 1100 5000 1100
Wire Wire Line
	5000 1100 5000 900 
Wire Wire Line
	1350 1400 2150 1400
Wire Wire Line
	1350 1300 1850 1300
$Comp
L Device:C C?
U 1 1 61C7FE81
P 1550 1850
F 0 "C?" H 1665 1896 50  0000 L CNN
F 1 "C" H 1665 1805 50  0000 L CNN
F 2 "" H 1588 1700 50  0001 C CNN
F 3 "~" H 1550 1850 50  0001 C CNN
	1    1550 1850
	1    0    0    -1  
$EndComp
Wire Wire Line
	1550 1700 1550 1100
Connection ~ 1550 1100
$Comp
L power:GND #PWR?
U 1 1 61C8341F
P 1550 2200
F 0 "#PWR?" H 1550 1950 50  0001 C CNN
F 1 "GND" H 1555 2027 50  0000 C CNN
F 2 "" H 1550 2200 50  0001 C CNN
F 3 "" H 1550 2200 50  0001 C CNN
	1    1550 2200
	1    0    0    -1  
$EndComp
Wire Wire Line
	1550 2200 1550 2000
$EndSCHEMATC
